{
  "$schema": "http://json-schema.org/draft-04/schema#",
  "type": "object",
  "properties": {
    "error": {
      "type": "object",
      "properties": {
        "message": {
          "type": "string"
        },
        "code": {
          "type": "string"
        }
      },
      "required": [
        "message",
        "code"
      ]
    },
    "id": {
      "type": ["string", "integer"]
    }
  },
  "required": [
    "error",
    "id"
  ]
}
