{
  "$schema": "http://json-schema.org/draft-04/schema#",
  "type": "object",
  "properties": {
    "jsonrpc": {
      "type": "string"
    },
    "error": {
      "type": "object",
      "properties": {
        "message": {
          "type": "string"
        }
      },
      "required": [
        "message"
      ]
    }
  },
  "required": [
    "jsonrpc",
    "error"
  ]
}
